^C:\USERS\SHAND\DESKTOP\MINEFILED\V1.0\TEST_V1.2\TEST_V1.2\DEBUG\STDAFX.OBJ|C:\USERS\SHAND\DESKTOP\MINEFILED\V1.0\TEST_V1.2\TEST_V1.2\DEBUG\TEST_V1.2.OBJ|C:\USERS\SHAND\DESKTOP\MINEFILED\V1.0\TEST_V1.2\TEST_V1.2\DEBUG\TEST_V1.2.RES
C:\USERS\SHAND\DESKTOP\MINEFILED\V1.0\TEST_V1.2\DEBUG\TEST_V1.2.EXE
C:\USERS\SHAND\DESKTOP\MINEFILED\V1.0\TEST_V1.2\DEBUG\TEST_V1.2.ILK
C:\USERS\SHAND\DESKTOP\MINEFILED\V1.0\TEST_V1.2\DEBUG\TEST_V1.2.PDB
